Lab 2/Lab 2.sim/sim_1/behav/xsim/traffic_controller.vcd
$date
   Wed Nov  5 10:54:24 2025
$end
$version
  2018.2
$end
$timescale
  1ps
$end
$scope module traffictestbench $end
$var reg 1 ! clk $end
$var reg 1 " reset $end
$var reg 1 # walk_button $end
$var reg 1 $ traffic_sensor $end
$var wire 3 % main_light [2:0] $end
$var wire 3 & side_light [2:0] $end
$var wire 1 ' walk_light $end
$scope module uut $end
$var wire 1 ( clk $end
$var wire 1 ) reset $end
$var wire 1 * walk_button $end
$var wire 1 + traffic_sensor $end
$var reg 3 , main_light [2:0] $end
$var reg 3 - side_light [2:0] $end
$var reg 1 . walk_light $end
$var reg 3 / state [2:0] $end
$var reg 3 0 next_state [2:0] $end
$var reg 1 1 walk_req $end
$var reg 4 2 timer [3:0] $end
$var wire 1 3 pulse_1hz $end
$var parameter 3 4 MG1 [2:0] $end
$var parameter 3 5 MG2 [2:0] $end
$var parameter 3 6 MG3 [2:0] $end
$var parameter 3 7 MY [2:0] $end
$var parameter 3 8 WALK [2:0] $end
$var parameter 3 9 SG1 [2:0] $end
$var parameter 3 : SG2 [2:0] $end
$var parameter 3 ; SY [2:0] $end
$var parameter 3 < GRN [2:0] $end
$var parameter 3 = YEL [2:0] $end
$var parameter 3 > RED [2:0] $end
$scope module clk_div $end
$var wire 1 ( clk $end
$var wire 1 ) reset $end
$var reg 1 ? pulse_1hz $end
$var reg 32 @ counter [31:0] $end
$var parameter 32 A CLOCK_FREQ [31:0] $end
$var parameter 32 B COUNT_MAX [31:0] $end
$upscope $end
$upscope $end
$upscope $end
$enddefinitions $end
#0
$dumpvars
0!
1"
0#
0$
b1 %
b100 &
0'
0(
1)
0*
0+
b1 ,
b100 -
0.
b0 /
b0 0
01
b0 2
03
b0 4
b1 5
b10 6
b11 7
b100 8
b101 9
b110 :
b111 ;
b1 <
b10 =
b100 >
0?
b0 @
b101111101011110000100000000 A
b101111101011110000011111111 B
$end
#5000
1!
1(
#10000
0!
0(
#15000
1!
1(
#20000
0!
0"
0(
0)
#25000
1!
1(
b1 @
#30000
0!
0(
#35000
1!
1(
b10 @
#40000
0!
0(
#45000
1!
1(
b11 @
#50000
0!
0(
#55000
1!
1(
b100 @
#60000
0!
0(
#65000
1!
1(
b101 @
#70000
0!
0(
#75000
1!
1(
b110 @
#80000
0!
0(
#85000
1!
1(
b111 @
#90000
0!
0(
#95000
1!
1(
b1000 @
#100000
0!
0(
#105000
1!
1(
b1001 @
#110000
0!
0(
#115000
1!
1(
b1010 @
#120000
0!
0(
#125000
1!
1(
b1011 @
#130000
0!
0(
#135000
1!
1(
b1100 @
#140000
0!
0(
#145000
1!
1(
b1101 @
#150000
0!
0(
#155000
1!
1(
b1110 @
#160000
0!
0(
#165000
1!
1(
b1111 @
#170000
0!
0(
#175000
1!
1(
b10000 @
#180000
0!
0(
#185000
1!
1(
b10001 @
#190000
0!
0(
#195000
1!
1(
b10010 @
#200000
0!
0(
#205000
1!
1(
b10011 @
#210000
0!
0(
#215000
1!
1(
b10100 @
#220000
0!
0(
#225000
1!
1(
b10101 @
#230000
0!
0(
#235000
1!
1(
b10110 @
#240000
0!
0(
#245000
1!
1(
b10111 @
#250000
0!
0(
#255000
1!
1(
b11000 @
#260000
0!
0(
#265000
1!
1(
b11001 @
#270000
0!
0(
#275000
1!
1(
b11010 @
#280000
0!
0(
#285000
1!
1(
b11011 @
#290000
0!
0(
#295000
1!
1(
b11100 @
#300000
0!
0(
#305000
1!
1(
b11101 @
#310000
0!
0(
#315000
1!
1(
b11110 @
#320000
0!
0(
#325000
1!
1(
b11111 @
#330000
0!
0(
#335000
1!
1(
b100000 @
#340000
0!
0(
#345000
1!
1(
b100001 @
#350000
0!
0(
#355000
1!
1(
b100010 @
#360000
0!
0(
#365000
1!
1(
b100011 @
#370000
0!
0(
#375000
1!
1(
b100100 @
#380000
0!
0(
#385000
1!
1(
b100101 @
#390000
0!
0(
#395000
1!
1(
b100110 @
#400000
0!
0(
#405000
1!
1(
b100111 @
#410000
0!
0(
#415000
1!
1(
b101000 @
#420000
0!
1"
0(
1)
b0 @
#425000
1!
1(
#430000
0!
0(
#435000
1!
1(
#440000
0!
0"
0(
0)
#445000
1!
1(
b1 @
#450000
0!
0(
#455000
1!
1(
b10 @
#460000
0!
0(
#465000
1!
1(
b11 @
#470000
0!
0(
#475000
1!
1(
b100 @
#480000
0!
0(
#485000
1!
1(
b101 @
#490000
0!
1#
0(
1*
#495000
1!
1(
11
b110 @
#500000
0!
0(
#505000
1!
1(
b111 @
#510000
0!
0(
#515000
1!
1(
b1000 @
#520000
0!
0#
0(
0*
#525000
1!
1(
b1001 @
#530000
0!
0(
#535000
1!
1(
b1010 @
#540000
0!
0(
#545000
1!
1(
b1011 @
#550000
0!
0(
#555000
1!
1(
b1100 @
#560000
0!
0(
#565000
1!
1(
b1101 @
#570000
0!
0(
#575000
1!
1(
b1110 @
#580000
0!
0(
#585000
1!
1(
b1111 @
#590000
0!
0(
#595000
1!
1(
b10000 @
#600000
0!
0(
#605000
1!
1(
b10001 @
#610000
0!
0(
#615000
1!
1(
b10010 @
#620000
0!
0(
#625000
1!
1(
b10011 @
#630000
0!
0(
#635000
1!
1(
b10100 @
#640000
0!
0(
#645000
1!
1(
b10101 @
#650000
0!
0(
#655000
1!
1(
b10110 @
#660000
0!
0(
#665000
1!
1(
b10111 @
#670000
0!
0(
#675000
1!
1(
b11000 @
#680000
0!
0(
#685000
1!
1(
b11001 @
#690000
0!
0(
#695000
1!
1(
b11010 @
#700000
0!
0(
#705000
1!
1(
b11011 @
#710000
0!
0(
#715000
1!
1(
b11100 @
#720000
0!
0(
#725000
1!
1(
b11101 @
#730000
0!
0(
#735000
1!
1(
b11110 @
#740000
0!
0(
#745000
1!
1(
b11111 @
#750000
0!
0(
#755000
1!
1(
b100000 @
#760000
0!
0(
#765000
1!
1(
b100001 @
#770000
0!
0(
#775000
1!
1(
b100010 @
#780000
0!
0(
#785000
1!
1(
b100011 @
#790000
0!
0(
#795000
1!
1(
b100100 @
#800000
0!
0(
#805000
1!
1(
b100101 @
#810000
0!
0(
#815000
1!
1(
b100110 @
#820000
0!
1"
0(
1)
01
b0 @
#825000
1!
1(
#830000
0!
0(
#835000
1!
1(
#840000
0!
0"
1$
0(
0)
1+
#845000
1!
1(
b1 @
#850000
0!
0(
#855000
1!
1(
b10 @
#860000
0!
0(
#865000
1!
1(
b11 @
#870000
0!
0(
#875000
1!
1(
b100 @
#880000
0!
0(
#885000
1!
1(
b101 @
#890000
0!
0(
#895000
1!
1(
b110 @
#900000
0!
0(
#905000
1!
1(
b111 @
#910000
0!
0(
#915000
1!
1(
b1000 @
#920000
0!
0(
#925000
1!
1(
b1001 @
#930000
0!
0(
#935000
1!
1(
b1010 @
#940000
0!
0(
#945000
1!
1(
b1011 @
#950000
0!
0(
#955000
1!
1(
b1100 @
#960000
0!
0(
#965000
1!
1(
b1101 @
#970000
0!
0(
#975000
1!
1(
b1110 @
#980000
0!
0(
#985000
1!
1(
b1111 @
#990000
0!
0(
#995000
1!
1(
b10000 @
